%YAML 1.1
%TAG !u! tag:unity3d.com,2011:
--- !u!114 &11400000
MonoBehaviour:
  m_ObjectHideFlags: 0
  m_CorrespondingSourceObject: {fileID: 0}
  m_PrefabInstance: {fileID: 0}
  m_PrefabAsset: {fileID: 0}
  m_GameObject: {fileID: 0}
  m_Enabled: 1
  m_EditorHideFlags: 0
  m_Script: {fileID: 11500000, guid: b84ee850199abbc4d92cd6a0d0c4a1ca, type: 3}
  m_Name: RatingSetup
  m_EditorClassIdentifier: 
  active: 1
  counter: 6
  lastCheck: 430785.60577244667
