# MagicaVoxel @ Ephtracy

# group
g House1F2FullRoof

# material
mtllib House1F2FullRoof.mtl
usemtl palette

# normals
vn -1 0 0
vn 1 0 0
vn 0 0 1
vn 0 0 -1
vn 0 -1 0
vn 0 1 0

# texcoords
vt 0.0410156 0.5
vt 0.865234 0.5
vt 0.869141 0.5
vt 0.958984 0.5

# verts
v -46 0 -12
v -46 0 -63
v -46 1 -12
v -46 1 -63
v -46 17 -21
v -46 17 -25
v -46 17 -39
v -46 17 -43
v -46 19 -21
v -46 19 -25
v -46 19 -39
v -46 19 -43
v -46 27 -12
v -46 27 -63
v -46 28 -12
v -46 28 -63
v -45 28 -13
v -45 28 -62
v -45 31 -13
v -45 31 -62
v -42 31 -13
v -42 31 -62
v -42 34 -13
v -42 34 -62
v -39 34 -13
v -39 34 -62
v -39 37 -13
v -39 37 -62
v -37 17 -12
v -37 17 -13
v -37 19 -12
v -37 19 -13
v -28 17 -12
v -28 17 -13
v -28 19 -12
v -28 19 -13
v -18 17 -12
v -18 17 -13
v -18 19 -12
v -18 19 -13
v -10 1 -45
v -10 1 -62
v -10 2 -45
v -10 2 -46
v -10 3 -46
v -10 3 -47
v -10 4 -47
v -10 4 -48
v -10 5 -48
v -10 5 -49
v -10 6 -49
v -10 6 -50
v -10 7 -50
v -10 7 -52
v -10 8 -52
v -10 8 -54
v -10 9 -54
v -10 9 -56
v -10 10 -56
v -10 10 -58
v -10 11 -58
v -10 11 -62
v -1 1 -12
v -1 1 -13
v -1 7 -12
v -1 7 -13
v -1 8 -12
v -1 8 -13
v 5 1 -12
v 5 1 -13
v 5 8 -12
v 5 8 -13
v 10 11 -48
v 10 11 -58
v 10 11 -60
v 10 12 -60
v 10 12 -62
v 10 13 -48
v 10 13 -62
v 24 17 -12
v 24 17 -13
v 24 19 -12
v 24 19 -13
v 32 17 -12
v 32 17 -13
v 32 19 -12
v 32 19 -13
v 41 17 -12
v 41 17 -13
v 41 19 -12
v 41 19 -13
v 45 1 -13
v 45 1 -62
v 45 11 -13
v 45 11 -62
v 45 13 -13
v 45 13 -62
v 45 17 -21
v 45 17 -25
v 45 17 -39
v 45 17 -43
v 45 19 -21
v 45 19 -25
v 45 19 -39
v 45 19 -43
v 45 22 -13
v 45 22 -62
v -45 1 -13
v -45 1 -62
v -45 11 -13
v -45 11 -62
v -45 13 -13
v -45 13 -62
v -45 17 -21
v -45 17 -25
v -45 17 -39
v -45 17 -43
v -45 19 -21
v -45 19 -25
v -45 19 -39
v -45 19 -43
v -45 22 -13
v -45 22 -62
v -41 17 -12
v -41 17 -13
v -41 19 -12
v -41 19 -13
v -32 17 -12
v -32 17 -13
v -32 19 -12
v -32 19 -13
v -24 17 -12
v -24 17 -13
v -24 19 -12
v -24 19 -13
v -10 11 -48
v -10 11 -58
v -10 11 -60
v -10 12 -60
v -10 12 -62
v -10 13 -48
v -10 13 -62
v -5 1 -12
v -5 1 -13
v -5 8 -12
v -5 8 -13
v 1 1 -12
v 1 1 -13
v 1 7 -12
v 1 7 -13
v 1 8 -12
v 1 8 -13
v 10 1 -45
v 10 1 -62
v 10 2 -45
v 10 2 -46
v 10 3 -46
v 10 3 -47
v 10 4 -47
v 10 4 -48
v 10 5 -48
v 10 5 -49
v 10 6 -49
v 10 6 -50
v 10 7 -50
v 10 7 -52
v 10 8 -52
v 10 8 -54
v 10 9 -54
v 10 9 -56
v 10 10 -56
v 10 10 -58
v 10 11 -58
v 10 11 -62
v 18 17 -12
v 18 17 -13
v 18 19 -12
v 18 19 -13
v 28 17 -12
v 28 17 -13
v 28 19 -12
v 28 19 -13
v 37 17 -12
v 37 17 -13
v 37 19 -12
v 37 19 -13
v 39 34 -13
v 39 34 -62
v 39 37 -13
v 39 37 -62
v 42 31 -13
v 42 31 -62
v 42 34 -13
v 42 34 -62
v 45 28 -13
v 45 28 -62
v 45 31 -13
v 45 31 -62
v 46 0 -12
v 46 0 -63
v 46 1 -12
v 46 1 -63
v 46 17 -21
v 46 17 -25
v 46 17 -39
v 46 17 -43
v 46 19 -21
v 46 19 -25
v 46 19 -39
v 46 19 -43
v 46 27 -12
v 46 27 -63
v 46 28 -12
v 46 28 -63
v -46 0 -12
v -46 1 -12
v -46 27 -12
v -46 28 -12
v -41 17 -12
v -41 19 -12
v -37 17 -12
v -37 19 -12
v -32 17 -12
v -32 19 -12
v -28 17 -12
v -28 19 -12
v -24 17 -12
v -24 19 -12
v -18 17 -12
v -18 19 -12
v -6 1 -12
v -6 12 -12
v -5 1 -12
v -5 8 -12
v -1 1 -12
v -1 7 -12
v -1 8 -12
v 1 1 -12
v 1 7 -12
v 1 8 -12
v 5 1 -12
v 5 8 -12
v 6 1 -12
v 6 12 -12
v 18 17 -12
v 18 19 -12
v 24 17 -12
v 24 19 -12
v 28 17 -12
v 28 19 -12
v 32 17 -12
v 32 19 -12
v 37 17 -12
v 37 19 -12
v 41 17 -12
v 41 19 -12
v 46 0 -12
v 46 1 -12
v 46 27 -12
v 46 28 -12
v -45 28 -13
v -45 31 -13
v -42 31 -13
v -42 34 -13
v -39 34 -13
v -39 37 -13
v 39 34 -13
v 39 37 -13
v 42 31 -13
v 42 34 -13
v 45 28 -13
v 45 31 -13
v -46 17 -25
v -46 19 -25
v -45 17 -25
v -45 19 -25
v 45 17 -25
v 45 19 -25
v 46 17 -25
v 46 19 -25
v -46 17 -43
v -46 19 -43
v -45 17 -43
v -45 19 -43
v 45 17 -43
v 45 19 -43
v 46 17 -43
v 46 19 -43
v -10 1 -45
v -10 2 -45
v 10 1 -45
v 10 2 -45
v -10 2 -46
v -10 3 -46
v 10 2 -46
v 10 3 -46
v -10 3 -47
v -10 4 -47
v 10 3 -47
v 10 4 -47
v -10 4 -48
v -10 5 -48
v 10 4 -48
v 10 5 -48
v -10 5 -49
v -10 6 -49
v 10 5 -49
v 10 6 -49
v -10 6 -50
v -10 7 -50
v 10 6 -50
v 10 7 -50
v -10 7 -52
v -10 8 -52
v 10 7 -52
v 10 8 -52
v -10 8 -54
v -10 9 -54
v 10 8 -54
v 10 9 -54
v -10 9 -56
v -10 10 -56
v 10 9 -56
v 10 10 -56
v -10 10 -58
v -10 11 -58
v 10 10 -58
v 10 11 -58
v -10 11 -60
v -10 12 -60
v 10 11 -60
v 10 12 -60
v -45 1 -62
v -45 11 -62
v -45 13 -62
v -45 22 -62
v -10 1 -62
v -10 11 -62
v -10 12 -62
v -10 13 -62
v 10 1 -62
v 10 11 -62
v 10 12 -62
v 10 13 -62
v 45 1 -62
v 45 11 -62
v 45 13 -62
v 45 22 -62
v -45 1 -13
v -45 11 -13
v -45 13 -13
v -45 22 -13
v -41 17 -13
v -41 19 -13
v -37 17 -13
v -37 19 -13
v -32 17 -13
v -32 19 -13
v -28 17 -13
v -28 19 -13
v -24 17 -13
v -24 19 -13
v -18 17 -13
v -18 19 -13
v -6 1 -13
v -6 11 -13
v -5 1 -13
v -5 8 -13
v -1 1 -13
v -1 7 -13
v -1 8 -13
v 1 1 -13
v 1 7 -13
v 1 8 -13
v 5 1 -13
v 5 8 -13
v 6 1 -13
v 6 11 -13
v 18 17 -13
v 18 19 -13
v 24 17 -13
v 24 19 -13
v 28 17 -13
v 28 19 -13
v 32 17 -13
v 32 19 -13
v 37 17 -13
v 37 19 -13
v 41 17 -13
v 41 19 -13
v 45 1 -13
v 45 11 -13
v 45 13 -13
v 45 22 -13
v -46 17 -21
v -46 19 -21
v -45 17 -21
v -45 19 -21
v 45 17 -21
v 45 19 -21
v 46 17 -21
v 46 19 -21
v -46 17 -39
v -46 19 -39
v -45 17 -39
v -45 19 -39
v 45 17 -39
v 45 19 -39
v 46 17 -39
v 46 19 -39
v -10 11 -48
v -10 13 -48
v 10 11 -48
v 10 13 -48
v -45 28 -62
v -45 31 -62
v -42 31 -62
v -42 34 -62
v -39 34 -62
v -39 37 -62
v 39 34 -62
v 39 37 -62
v 42 31 -62
v 42 34 -62
v 45 28 -62
v 45 31 -62
v -46 0 -63
v -46 1 -63
v -46 27 -63
v -46 28 -63
v 46 0 -63
v 46 1 -63
v 46 27 -63
v 46 28 -63
v -46 0 -12
v 46 0 -12
v -45 0 -13
v 45 0 -13
v -45 0 -62
v 45 0 -62
v -46 0 -63
v 46 0 -63
v -5 8 -12
v -1 8 -12
v 1 8 -12
v 5 8 -12
v -5 8 -13
v -1 8 -13
v 1 8 -13
v 5 8 -13
v -45 11 -13
v -6 11 -13
v 6 11 -13
v 45 11 -13
v -10 11 -48
v 10 11 -48
v -10 11 -58
v 10 11 -58
v -45 11 -62
v -10 11 -62
v 10 11 -62
v 45 11 -62
v -41 19 -12
v -37 19 -12
v -32 19 -12
v -28 19 -12
v -24 19 -12
v -18 19 -12
v 18 19 -12
v 24 19 -12
v 28 19 -12
v 32 19 -12
v 37 19 -12
v 41 19 -12
v -41 19 -13
v -37 19 -13
v -32 19 -13
v -28 19 -13
v -24 19 -13
v -18 19 -13
v 18 19 -13
v 24 19 -13
v 28 19 -13
v 32 19 -13
v 37 19 -13
v 41 19 -13
v -46 19 -21
v -45 19 -21
v 45 19 -21
v 46 19 -21
v -46 19 -25
v -45 19 -25
v 45 19 -25
v 46 19 -25
v -46 19 -39
v -45 19 -39
v 45 19 -39
v 46 19 -39
v -46 19 -43
v -45 19 -43
v 45 19 -43
v 46 19 -43
v -45 22 -13
v 45 22 -13
v -45 22 -62
v 45 22 -62
v -5 1 -12
v -1 1 -12
v 1 1 -12
v 5 1 -12
v -45 1 -13
v -6 1 -13
v -5 1 -13
v -1 1 -13
v 1 1 -13
v 5 1 -13
v 6 1 -13
v 45 1 -13
v -10 1 -45
v 10 1 -45
v -45 1 -62
v -10 1 -62
v 10 1 -62
v 45 1 -62
v -10 2 -45
v 10 2 -45
v -10 2 -46
v 10 2 -46
v -10 3 -46
v 10 3 -46
v -10 3 -47
v 10 3 -47
v -10 4 -47
v 10 4 -47
v -10 4 -48
v 10 4 -48
v -10 5 -48
v 10 5 -48
v -10 5 -49
v 10 5 -49
v -10 6 -49
v 10 6 -49
v -10 6 -50
v 10 6 -50
v -10 7 -50
v 10 7 -50
v -10 7 -52
v 10 7 -52
v -10 8 -52
v 10 8 -52
v -10 8 -54
v 10 8 -54
v -10 9 -54
v 10 9 -54
v -10 9 -56
v 10 9 -56
v -10 10 -56
v 10 10 -56
v -10 10 -58
v 10 10 -58
v -10 11 -58
v 10 11 -58
v -10 11 -60
v 10 11 -60
v -10 12 -60
v 10 12 -60
v -10 12 -62
v 10 12 -62
v -45 13 -13
v 45 13 -13
v -10 13 -48
v 10 13 -48
v -45 13 -62
v -10 13 -62
v 10 13 -62
v 45 13 -62
v -41 17 -12
v -37 17 -12
v -32 17 -12
v -28 17 -12
v -24 17 -12
v -18 17 -12
v 18 17 -12
v 24 17 -12
v 28 17 -12
v 32 17 -12
v 37 17 -12
v 41 17 -12
v -41 17 -13
v -37 17 -13
v -32 17 -13
v -28 17 -13
v -24 17 -13
v -18 17 -13
v 18 17 -13
v 24 17 -13
v 28 17 -13
v 32 17 -13
v 37 17 -13
v 41 17 -13
v -46 17 -21
v -45 17 -21
v 45 17 -21
v 46 17 -21
v -46 17 -25
v -45 17 -25
v 45 17 -25
v 46 17 -25
v -46 17 -39
v -45 17 -39
v 45 17 -39
v 46 17 -39
v -46 17 -43
v -45 17 -43
v 45 17 -43
v 46 17 -43
v -46 28 -12
v 46 28 -12
v -45 28 -13
v 45 28 -13
v -45 28 -62
v 45 28 -62
v -46 28 -63
v 46 28 -63
v -45 31 -13
v -42 31 -13
v 42 31 -13
v 45 31 -13
v -45 31 -62
v -42 31 -62
v 42 31 -62
v 45 31 -62
v -42 34 -13
v -39 34 -13
v 39 34 -13
v 42 34 -13
v -42 34 -62
v -39 34 -62
v 39 34 -62
v 42 34 -62
v -39 37 -13
v 39 37 -13
v -39 37 -62
v 39 37 -62

# faces
f 3/3/1 2/3/1 1/3/1
f 4/3/1 2/3/1 3/3/1
f 5/4/1 4/4/1 3/4/1
f 6/4/1 4/4/1 5/4/1
f 7/4/1 4/4/1 6/4/1
f 8/4/1 4/4/1 7/4/1
f 9/4/1 5/4/1 3/4/1
f 10/4/1 7/4/1 6/4/1
f 11/4/1 7/4/1 10/4/1
f 12/4/1 4/4/1 8/4/1
f 13/4/1 11/4/1 10/4/1
f 13/4/1 12/4/1 11/4/1
f 13/4/1 9/4/1 3/4/1
f 13/4/1 10/4/1 9/4/1
f 14/4/1 4/4/1 12/4/1
f 14/4/1 12/4/1 13/4/1
f 15/2/1 14/2/1 13/2/1
f 16/2/1 14/2/1 15/2/1
f 19/2/1 18/2/1 17/2/1
f 20/2/1 18/2/1 19/2/1
f 23/2/1 22/2/1 21/2/1
f 24/2/1 22/2/1 23/2/1
f 27/2/1 26/2/1 25/2/1
f 28/2/1 26/2/1 27/2/1
f 31/4/1 30/4/1 29/4/1
f 32/4/1 30/4/1 31/4/1
f 35/4/1 34/4/1 33/4/1
f 36/4/1 34/4/1 35/4/1
f 39/4/1 38/4/1 37/4/1
f 40/4/1 38/4/1 39/4/1
f 43/4/1 42/4/1 41/4/1
f 44/4/1 42/4/1 43/4/1
f 45/4/1 42/4/1 44/4/1
f 46/4/1 42/4/1 45/4/1
f 47/4/1 42/4/1 46/4/1
f 48/4/1 42/4/1 47/4/1
f 49/4/1 42/4/1 48/4/1
f 50/4/1 42/4/1 49/4/1
f 51/4/1 42/4/1 50/4/1
f 52/4/1 42/4/1 51/4/1
f 53/4/1 42/4/1 52/4/1
f 54/4/1 42/4/1 53/4/1
f 55/4/1 42/4/1 54/4/1
f 56/4/1 42/4/1 55/4/1
f 57/4/1 42/4/1 56/4/1
f 58/4/1 42/4/1 57/4/1
f 59/4/1 42/4/1 58/4/1
f 60/4/1 42/4/1 59/4/1
f 61/4/1 42/4/1 60/4/1
f 62/4/1 42/4/1 61/4/1
f 65/4/1 64/4/1 63/4/1
f 66/4/1 64/4/1 65/4/1
f 67/3/1 66/3/1 65/3/1
f 68/3/1 66/3/1 67/3/1
f 71/3/1 70/3/1 69/3/1
f 72/3/1 70/3/1 71/3/1
f 76/4/1 74/4/1 73/4/1
f 76/4/1 75/4/1 74/4/1
f 78/4/1 76/4/1 73/4/1
f 78/4/1 77/4/1 76/4/1
f 79/4/1 77/4/1 78/4/1
f 82/4/1 81/4/1 80/4/1
f 83/4/1 81/4/1 82/4/1
f 86/4/1 85/4/1 84/4/1
f 87/4/1 85/4/1 86/4/1
f 90/4/1 89/4/1 88/4/1
f 91/4/1 89/4/1 90/4/1
f 94/4/1 93/4/1 92/4/1
f 95/4/1 93/4/1 94/4/1
f 98/4/1 97/4/1 96/4/1
f 99/4/1 97/4/1 98/4/1
f 100/4/1 97/4/1 99/4/1
f 101/4/1 97/4/1 100/4/1
f 102/4/1 98/4/1 96/4/1
f 103/4/1 100/4/1 99/4/1
f 104/4/1 100/4/1 103/4/1
f 105/4/1 97/4/1 101/4/1
f 106/4/1 104/4/1 103/4/1
f 106/4/1 105/4/1 104/4/1
f 106/4/1 102/4/1 96/4/1
f 106/4/1 103/4/1 102/4/1
f 107/4/1 97/4/1 105/4/1
f 107/4/1 105/4/1 106/4/1
f 108/4/2 109/4/2 110/4/2
f 110/4/2 109/4/2 111/4/2
f 112/4/2 113/4/2 114/4/2
f 114/4/2 113/4/2 115/4/2
f 115/4/2 113/4/2 116/4/2
f 116/4/2 113/4/2 117/4/2
f 112/4/2 114/4/2 118/4/2
f 115/4/2 116/4/2 119/4/2
f 119/4/2 116/4/2 120/4/2
f 117/4/2 113/4/2 121/4/2
f 119/4/2 120/4/2 122/4/2
f 120/4/2 121/4/2 122/4/2
f 112/4/2 118/4/2 122/4/2
f 118/4/2 119/4/2 122/4/2
f 121/4/2 113/4/2 123/4/2
f 122/4/2 121/4/2 123/4/2
f 124/4/2 125/4/2 126/4/2
f 126/4/2 125/4/2 127/4/2
f 128/4/2 129/4/2 130/4/2
f 130/4/2 129/4/2 131/4/2
f 132/4/2 133/4/2 134/4/2
f 134/4/2 133/4/2 135/4/2
f 136/4/2 137/4/2 139/4/2
f 137/4/2 138/4/2 139/4/2
f 136/4/2 139/4/2 141/4/2
f 139/4/2 140/4/2 141/4/2
f 141/4/2 140/4/2 142/4/2
f 143/3/2 144/3/2 145/3/2
f 145/3/2 144/3/2 146/3/2
f 147/4/2 148/4/2 149/4/2
f 149/4/2 148/4/2 150/4/2
f 149/3/2 150/3/2 151/3/2
f 151/3/2 150/3/2 152/3/2
f 153/4/2 154/4/2 155/4/2
f 155/4/2 154/4/2 156/4/2
f 156/4/2 154/4/2 157/4/2
f 157/4/2 154/4/2 158/4/2
f 158/4/2 154/4/2 159/4/2
f 159/4/2 154/4/2 160/4/2
f 160/4/2 154/4/2 161/4/2
f 161/4/2 154/4/2 162/4/2
f 162/4/2 154/4/2 163/4/2
f 163/4/2 154/4/2 164/4/2
f 164/4/2 154/4/2 165/4/2
f 165/4/2 154/4/2 166/4/2
f 166/4/2 154/4/2 167/4/2
f 167/4/2 154/4/2 168/4/2
f 168/4/2 154/4/2 169/4/2
f 169/4/2 154/4/2 170/4/2
f 170/4/2 154/4/2 171/4/2
f 171/4/2 154/4/2 172/4/2
f 172/4/2 154/4/2 173/4/2
f 173/4/2 154/4/2 174/4/2
f 175/4/2 176/4/2 177/4/2
f 177/4/2 176/4/2 178/4/2
f 179/4/2 180/4/2 181/4/2
f 181/4/2 180/4/2 182/4/2
f 183/4/2 184/4/2 185/4/2
f 185/4/2 184/4/2 186/4/2
f 187/2/2 188/2/2 189/2/2
f 189/2/2 188/2/2 190/2/2
f 191/2/2 192/2/2 193/2/2
f 193/2/2 192/2/2 194/2/2
f 195/2/2 196/2/2 197/2/2
f 197/2/2 196/2/2 198/2/2
f 199/3/2 200/3/2 201/3/2
f 201/3/2 200/3/2 202/3/2
f 201/4/2 202/4/2 203/4/2
f 203/4/2 202/4/2 204/4/2
f 204/4/2 202/4/2 205/4/2
f 205/4/2 202/4/2 206/4/2
f 201/4/2 203/4/2 207/4/2
f 204/4/2 205/4/2 208/4/2
f 208/4/2 205/4/2 209/4/2
f 206/4/2 202/4/2 210/4/2
f 208/4/2 209/4/2 211/4/2
f 209/4/2 210/4/2 211/4/2
f 201/4/2 207/4/2 211/4/2
f 207/4/2 208/4/2 211/4/2
f 210/4/2 202/4/2 212/4/2
f 211/4/2 210/4/2 212/4/2
f 211/2/2 212/2/2 213/2/2
f 213/2/2 212/2/2 214/2/2
f 219/4/3 217/4/3 216/4/3
f 220/4/3 217/4/3 219/4/3
f 221/4/3 219/4/3 216/4/3
f 222/4/3 217/4/3 220/4/3
f 223/4/3 221/4/3 216/4/3
f 223/4/3 222/4/3 221/4/3
f 224/4/3 217/4/3 222/4/3
f 224/4/3 222/4/3 223/4/3
f 225/4/3 223/4/3 216/4/3
f 226/4/3 217/4/3 224/4/3
f 227/4/3 225/4/3 216/4/3
f 227/4/3 226/4/3 225/4/3
f 228/4/3 217/4/3 226/4/3
f 228/4/3 226/4/3 227/4/3
f 229/4/3 227/4/3 216/4/3
f 230/4/3 217/4/3 228/4/3
f 231/3/3 216/3/3 215/3/3
f 231/4/3 230/4/3 229/4/3
f 231/4/3 229/4/3 216/4/3
f 232/4/3 230/4/3 231/4/3
f 233/3/3 231/3/3 215/3/3
f 233/3/3 232/3/3 231/3/3
f 234/3/3 232/3/3 233/3/3
f 235/3/3 233/3/3 215/3/3
f 237/3/3 232/3/3 234/3/3
f 238/4/3 236/4/3 235/4/3
f 238/3/3 235/3/3 215/3/3
f 239/3/3 237/3/3 236/3/3
f 239/4/3 236/4/3 238/4/3
f 240/3/3 232/3/3 237/3/3
f 240/3/3 237/3/3 239/3/3
f 241/3/3 238/3/3 215/3/3
f 242/3/3 232/3/3 240/3/3
f 243/3/3 241/3/3 215/3/3
f 243/3/3 242/3/3 241/3/3
f 244/4/3 230/4/3 232/4/3
f 244/3/3 242/3/3 243/3/3
f 244/3/3 232/3/3 242/3/3
f 245/4/3 244/4/3 243/4/3
f 245/4/3 230/4/3 244/4/3
f 246/4/3 217/4/3 230/4/3
f 246/4/3 230/4/3 245/4/3
f 247/4/3 245/4/3 243/4/3
f 248/4/3 217/4/3 246/4/3
f 249/4/3 247/4/3 243/4/3
f 249/4/3 248/4/3 247/4/3
f 250/4/3 217/4/3 248/4/3
f 250/4/3 248/4/3 249/4/3
f 251/4/3 249/4/3 243/4/3
f 252/4/3 217/4/3 250/4/3
f 253/4/3 251/4/3 243/4/3
f 253/4/3 252/4/3 251/4/3
f 254/4/3 217/4/3 252/4/3
f 254/4/3 252/4/3 253/4/3
f 255/4/3 253/4/3 243/4/3
f 256/4/3 217/4/3 254/4/3
f 257/3/3 243/3/3 215/3/3
f 258/4/3 255/4/3 243/4/3
f 258/3/3 243/3/3 257/3/3
f 258/4/3 256/4/3 255/4/3
f 259/2/3 218/2/3 217/2/3
f 259/4/3 256/4/3 258/4/3
f 259/4/3 217/4/3 256/4/3
f 260/2/3 218/2/3 259/2/3
f 263/2/3 262/2/3 261/2/3
f 265/2/3 264/2/3 263/2/3
f 267/2/3 265/2/3 263/2/3
f 267/2/3 266/2/3 265/2/3
f 268/2/3 266/2/3 267/2/3
f 269/2/3 263/2/3 261/2/3
f 269/2/3 267/2/3 263/2/3
f 270/2/3 267/2/3 269/2/3
f 271/2/3 269/2/3 261/2/3
f 272/2/3 269/2/3 271/2/3
f 275/4/3 274/4/3 273/4/3
f 276/4/3 274/4/3 275/4/3
f 279/4/3 278/4/3 277/4/3
f 280/4/3 278/4/3 279/4/3
f 283/4/3 282/4/3 281/4/3
f 284/4/3 282/4/3 283/4/3
f 287/4/3 286/4/3 285/4/3
f 288/4/3 286/4/3 287/4/3
f 291/4/3 290/4/3 289/4/3
f 292/4/3 290/4/3 291/4/3
f 295/4/3 294/4/3 293/4/3
f 296/4/3 294/4/3 295/4/3
f 299/4/3 298/4/3 297/4/3
f 300/4/3 298/4/3 299/4/3
f 303/4/3 302/4/3 301/4/3
f 304/4/3 302/4/3 303/4/3
f 307/4/3 306/4/3 305/4/3
f 308/4/3 306/4/3 307/4/3
f 311/4/3 310/4/3 309/4/3
f 312/4/3 310/4/3 311/4/3
f 315/4/3 314/4/3 313/4/3
f 316/4/3 314/4/3 315/4/3
f 319/4/3 318/4/3 317/4/3
f 320/4/3 318/4/3 319/4/3
f 323/4/3 322/4/3 321/4/3
f 324/4/3 322/4/3 323/4/3
f 327/4/3 326/4/3 325/4/3
f 328/4/3 326/4/3 327/4/3
f 331/4/3 330/4/3 329/4/3
f 332/4/3 330/4/3 331/4/3
f 337/4/3 334/4/3 333/4/3
f 338/4/3 334/4/3 337/4/3
f 340/4/3 336/4/3 335/4/3
f 343/4/3 340/4/3 339/4/3
f 344/4/3 336/4/3 340/4/3
f 344/4/3 340/4/3 343/4/3
f 345/4/3 342/4/3 341/4/3
f 346/4/3 342/4/3 345/4/3
f 347/4/3 336/4/3 344/4/3
f 348/4/3 336/4/3 347/4/3
f 351/4/4 352/4/4 353/4/4
f 353/4/4 352/4/4 354/4/4
f 351/4/4 353/4/4 355/4/4
f 354/4/4 352/4/4 356/4/4
f 351/4/4 355/4/4 357/4/4
f 355/4/4 356/4/4 357/4/4
f 356/4/4 352/4/4 358/4/4
f 357/4/4 356/4/4 358/4/4
f 351/4/4 357/4/4 359/4/4
f 358/4/4 352/4/4 360/4/4
f 351/4/4 359/4/4 361/4/4
f 359/4/4 360/4/4 361/4/4
f 360/4/4 352/4/4 362/4/4
f 361/4/4 360/4/4 362/4/4
f 351/4/4 361/4/4 363/4/4
f 362/4/4 352/4/4 364/4/4
f 349/4/4 350/4/4 365/4/4
f 365/4/4 350/4/4 366/4/4
f 365/3/4 366/3/4 367/3/4
f 367/3/4 366/3/4 368/3/4
f 368/3/4 366/3/4 371/3/4
f 369/4/4 370/4/4 372/4/4
f 370/3/4 371/3/4 373/3/4
f 372/4/4 370/4/4 373/4/4
f 371/3/4 366/3/4 374/3/4
f 373/3/4 371/3/4 374/3/4
f 374/3/4 366/3/4 376/3/4
f 375/3/4 376/3/4 377/3/4
f 376/3/4 366/3/4 378/3/4
f 377/3/4 376/3/4 378/3/4
f 363/4/4 364/4/4 379/4/4
f 351/4/4 363/4/4 379/4/4
f 364/4/4 352/4/4 380/4/4
f 379/4/4 364/4/4 380/4/4
f 351/4/4 379/4/4 381/4/4
f 380/4/4 352/4/4 382/4/4
f 351/4/4 381/4/4 383/4/4
f 381/4/4 382/4/4 383/4/4
f 382/4/4 352/4/4 384/4/4
f 383/4/4 382/4/4 384/4/4
f 351/4/4 383/4/4 385/4/4
f 384/4/4 352/4/4 386/4/4
f 351/4/4 385/4/4 387/4/4
f 385/4/4 386/4/4 387/4/4
f 386/4/4 352/4/4 388/4/4
f 387/4/4 386/4/4 388/4/4
f 351/4/4 387/4/4 389/4/4
f 388/4/4 352/4/4 390/4/4
f 377/4/4 378/4/4 391/4/4
f 391/4/4 378/4/4 392/4/4
f 389/4/4 390/4/4 393/4/4
f 351/4/4 389/4/4 393/4/4
f 390/4/4 352/4/4 394/4/4
f 393/4/4 390/4/4 394/4/4
f 395/4/4 396/4/4 397/4/4
f 397/4/4 396/4/4 398/4/4
f 399/4/4 400/4/4 401/4/4
f 401/4/4 400/4/4 402/4/4
f 403/4/4 404/4/4 405/4/4
f 405/4/4 404/4/4 406/4/4
f 407/4/4 408/4/4 409/4/4
f 409/4/4 408/4/4 410/4/4
f 411/4/4 412/4/4 413/4/4
f 413/4/4 412/4/4 414/4/4
f 415/2/4 416/2/4 417/2/4
f 417/2/4 418/2/4 419/2/4
f 417/2/4 419/2/4 421/2/4
f 419/2/4 420/2/4 421/2/4
f 421/2/4 420/2/4 422/2/4
f 415/2/4 417/2/4 423/2/4
f 417/2/4 421/2/4 423/2/4
f 423/2/4 421/2/4 424/2/4
f 415/2/4 423/2/4 425/2/4
f 425/2/4 423/2/4 426/2/4
f 427/3/4 428/3/4 431/3/4
f 428/4/4 429/4/4 432/4/4
f 431/3/4 428/3/4 432/3/4
f 429/2/4 430/2/4 433/2/4
f 432/4/4 429/4/4 433/4/4
f 433/2/4 430/2/4 434/2/4
f 437/3/5 436/3/5 435/3/5
f 438/3/5 436/3/5 437/3/5
f 439/3/5 437/3/5 435/3/5
f 439/1/5 438/1/5 437/1/5
f 440/3/5 436/3/5 438/3/5
f 440/1/5 438/1/5 439/1/5
f 441/3/5 439/3/5 435/3/5
f 441/3/5 440/3/5 439/3/5
f 442/3/5 436/3/5 440/3/5
f 442/3/5 440/3/5 441/3/5
f 447/3/5 444/3/5 443/3/5
f 448/3/5 444/3/5 447/3/5
f 449/3/5 446/3/5 445/3/5
f 450/3/5 446/3/5 449/3/5
f 455/4/5 452/4/5 451/4/5
f 455/4/5 454/4/5 453/4/5
f 455/4/5 453/4/5 452/4/5
f 456/4/5 454/4/5 455/4/5
f 457/4/5 455/4/5 451/4/5
f 458/4/5 454/4/5 456/4/5
f 459/4/5 457/4/5 451/4/5
f 460/4/5 457/4/5 459/4/5
f 461/4/5 454/4/5 458/4/5
f 462/4/5 454/4/5 461/4/5
f 475/4/5 464/4/5 463/4/5
f 476/4/5 464/4/5 475/4/5
f 477/4/5 466/4/5 465/4/5
f 478/4/5 466/4/5 477/4/5
f 479/4/5 468/4/5 467/4/5
f 480/4/5 468/4/5 479/4/5
f 481/4/5 470/4/5 469/4/5
f 482/4/5 470/4/5 481/4/5
f 483/4/5 472/4/5 471/4/5
f 484/4/5 472/4/5 483/4/5
f 485/4/5 474/4/5 473/4/5
f 486/4/5 474/4/5 485/4/5
f 491/4/5 488/4/5 487/4/5
f 492/4/5 488/4/5 491/4/5
f 493/4/5 490/4/5 489/4/5
f 494/4/5 490/4/5 493/4/5
f 499/4/5 496/4/5 495/4/5
f 500/4/5 496/4/5 499/4/5
f 501/4/5 498/4/5 497/4/5
f 502/4/5 498/4/5 501/4/5
f 505/4/5 504/4/5 503/4/5
f 506/4/5 504/4/5 505/4/5
f 507/3/6 508/3/6 513/3/6
f 513/3/6 508/3/6 514/3/6
f 509/3/6 510/3/6 515/3/6
f 515/3/6 510/3/6 516/3/6
f 511/1/6 512/1/6 519/1/6
f 517/1/6 518/1/6 519/1/6
f 516/1/6 517/1/6 519/1/6
f 515/1/6 516/1/6 519/1/6
f 514/1/6 515/1/6 519/1/6
f 513/1/6 514/1/6 519/1/6
f 512/1/6 513/1/6 519/1/6
f 519/1/6 518/1/6 520/1/6
f 511/1/6 519/1/6 521/1/6
f 521/1/6 519/1/6 522/1/6
f 520/1/6 518/1/6 523/1/6
f 523/1/6 518/1/6 524/1/6
f 525/4/6 526/4/6 527/4/6
f 527/4/6 526/4/6 528/4/6
f 529/4/6 530/4/6 531/4/6
f 531/4/6 530/4/6 532/4/6
f 533/4/6 534/4/6 535/4/6
f 535/4/6 534/4/6 536/4/6
f 537/4/6 538/4/6 539/4/6
f 539/4/6 538/4/6 540/4/6
f 541/4/6 542/4/6 543/4/6
f 543/4/6 542/4/6 544/4/6
f 545/4/6 546/4/6 547/4/6
f 547/4/6 546/4/6 548/4/6
f 549/4/6 550/4/6 551/4/6
f 551/4/6 550/4/6 552/4/6
f 553/4/6 554/4/6 555/4/6
f 555/4/6 554/4/6 556/4/6
f 557/4/6 558/4/6 559/4/6
f 559/4/6 558/4/6 560/4/6
f 561/4/6 562/4/6 563/4/6
f 563/4/6 562/4/6 564/4/6
f 565/4/6 566/4/6 567/4/6
f 567/4/6 566/4/6 568/4/6
f 569/4/6 570/4/6 571/4/6
f 571/4/6 570/4/6 572/4/6
f 569/4/6 571/4/6 573/4/6
f 573/4/6 571/4/6 574/4/6
f 572/4/6 570/4/6 575/4/6
f 575/4/6 570/4/6 576/4/6
f 577/4/6 578/4/6 589/4/6
f 589/4/6 578/4/6 590/4/6
f 579/4/6 580/4/6 591/4/6
f 591/4/6 580/4/6 592/4/6
f 581/4/6 582/4/6 593/4/6
f 593/4/6 582/4/6 594/4/6
f 583/4/6 584/4/6 595/4/6
f 595/4/6 584/4/6 596/4/6
f 585/4/6 586/4/6 597/4/6
f 597/4/6 586/4/6 598/4/6
f 587/4/6 588/4/6 599/4/6
f 599/4/6 588/4/6 600/4/6
f 601/4/6 602/4/6 605/4/6
f 605/4/6 602/4/6 606/4/6
f 603/4/6 604/4/6 607/4/6
f 607/4/6 604/4/6 608/4/6
f 609/4/6 610/4/6 613/4/6
f 613/4/6 610/4/6 614/4/6
f 611/4/6 612/4/6 615/4/6
f 615/4/6 612/4/6 616/4/6
f 617/2/6 618/2/6 619/2/6
f 619/2/6 618/2/6 620/2/6
f 617/2/6 619/2/6 621/2/6
f 620/2/6 618/2/6 622/2/6
f 617/2/6 621/2/6 623/2/6
f 621/2/6 622/2/6 623/2/6
f 622/2/6 618/2/6 624/2/6
f 623/2/6 622/2/6 624/2/6
f 625/2/6 626/2/6 629/2/6
f 629/2/6 626/2/6 630/2/6
f 627/2/6 628/2/6 631/2/6
f 631/2/6 628/2/6 632/2/6
f 633/2/6 634/2/6 637/2/6
f 637/2/6 634/2/6 638/2/6
f 635/2/6 636/2/6 639/2/6
f 639/2/6 636/2/6 640/2/6
f 641/2/6 642/2/6 643/2/6
f 643/2/6 642/2/6 644/2/6
