# MagicaVoxel @ Ephtracy

# group
g Girl2

# material
mtllib Girl2.mtl
usemtl palette

# normals
vn -1 0 0
vn 1 0 0
vn 0 0 1
vn 0 0 -1
vn 0 -1 0
vn 0 1 0

# texcoords
vt 0.0332031 0.5
vt 0.134766 0.5
vt 0.337891 0.5
vt 0.751953 0.5
vt 0.810547 0.5
vt 0.845703 0.5
vt 0.958984 0.5
vt 0.982422 0.5
vt 0.994141 0.5

# verts
v -2 24 10
v -2 24 -10
v -2 28 10
v -2 28 -10
v -2 48 10
v -2 48 -10
v -1 48 9
v -1 48 -9
v -1 50 9
v -1 50 -9
v 0 50 5
v 0 50 -5
v 0 53 12
v 0 53 5
v 0 53 -5
v 0 53 -12
v 0 54 19
v 0 54 16
v 0 54 -16
v 0 54 -19
v 0 66 16
v 0 66 12
v 0 66 -12
v 0 66 -16
v 0 69 19
v 0 69 12
v 0 69 -12
v 0 69 -19
v 0 71 12
v 0 71 -12
v 2 0 10
v 2 0 2
v 2 0 -2
v 2 0 -10
v 2 4 10
v 2 4 2
v 2 4 -2
v 2 4 -10
v 2 5 10
v 2 5 2
v 2 5 -2
v 2 5 -10
v 2 8 10
v 2 8 2
v 2 8 -2
v 2 8 -10
v 2 15 10
v 2 15 2
v 2 15 -2
v 2 15 -10
v 2 16 10
v 2 16 2
v 2 16 -2
v 2 16 -10
v 2 23 10
v 2 23 2
v 2 23 -2
v 2 23 -10
v 2 37 36
v 2 37 28
v 2 37 -28
v 2 37 -36
v 2 40 28
v 2 40 26
v 2 40 25
v 2 40 19
v 2 40 18
v 2 40 11
v 2 40 -11
v 2 40 -18
v 2 40 -19
v 2 40 -25
v 2 40 -26
v 2 40 -28
v 2 48 36
v 2 48 26
v 2 48 25
v 2 48 19
v 2 48 18
v 2 48 11
v 2 48 -11
v 2 48 -18
v 2 48 -19
v 2 48 -25
v 2 48 -26
v 2 48 -36
v 3 4 9
v 3 4 3
v 3 4 -3
v 3 4 -9
v 3 5 9
v 3 5 3
v 3 5 -3
v 3 5 -9
v 3 15 9
v 3 15 3
v 3 15 -3
v 3 15 -9
v 3 16 9
v 3 16 3
v 3 16 -3
v 3 16 -9
v 3 23 9
v 3 23 3
v 3 23 -3
v 3 23 -9
v 3 24 9
v 3 24 3
v 3 24 -3
v 3 24 -9
v 3 41 26
v 3 41 25
v 3 41 19
v 3 41 18
v 3 41 11
v 3 41 10
v 3 41 -10
v 3 41 -11
v 3 41 -18
v 3 41 -19
v 3 41 -25
v 3 41 -26
v 3 47 26
v 3 47 25
v 3 47 19
v 3 47 18
v 3 47 11
v 3 47 10
v 3 47 -10
v 3 47 -11
v 3 47 -18
v 3 47 -19
v 3 47 -25
v 3 47 -26
v 8 15 9
v 8 15 8
v 8 15 -8
v 8 15 -9
v 8 16 9
v 8 16 8
v 8 16 -8
v 8 16 -9
v 9 4 9
v 9 4 3
v 9 4 -3
v 9 4 -9
v 9 5 9
v 9 5 3
v 9 5 -3
v 9 5 -9
v 9 15 8
v 9 15 3
v 9 15 -3
v 9 15 -8
v 9 16 8
v 9 16 3
v 9 16 -3
v 9 16 -8
v 9 23 9
v 9 23 3
v 9 23 -3
v 9 23 -9
v 9 24 9
v 9 24 3
v 9 24 -3
v 9 24 -9
v 9 41 26
v 9 41 25
v 9 41 19
v 9 41 18
v 9 41 11
v 9 41 10
v 9 41 -10
v 9 41 -11
v 9 41 -18
v 9 41 -19
v 9 41 -25
v 9 41 -26
v 9 47 26
v 9 47 25
v 9 47 19
v 9 47 18
v 9 47 11
v 9 47 10
v 9 47 -10
v 9 47 -11
v 9 47 -18
v 9 47 -19
v 9 47 -25
v 9 47 -26
v 10 5 10
v 10 5 2
v 10 5 -2
v 10 5 -10
v 10 8 10
v 10 8 2
v 10 8 -2
v 10 8 -10
v 10 15 10
v 10 15 2
v 10 15 -2
v 10 15 -10
v 10 16 10
v 10 16 2
v 10 16 -2
v 10 16 -10
v 10 23 10
v 10 23 2
v 10 23 -2
v 10 23 -10
v 10 37 36
v 10 37 28
v 10 37 -28
v 10 37 -36
v 10 40 28
v 10 40 26
v 10 40 25
v 10 40 19
v 10 40 18
v 10 40 11
v 10 40 -11
v 10 40 -18
v 10 40 -19
v 10 40 -25
v 10 40 -26
v 10 40 -28
v 10 48 36
v 10 48 26
v 10 48 25
v 10 48 19
v 10 48 18
v 10 48 11
v 10 48 -11
v 10 48 -18
v 10 48 -19
v 10 48 -25
v 10 48 -26
v 10 48 -36
v 12 50 5
v 12 50 -5
v 12 53 12
v 12 53 9
v 12 53 5
v 12 53 -5
v 12 53 -9
v 12 53 -12
v 12 54 19
v 12 54 16
v 12 54 3
v 12 54 -3
v 12 54 -16
v 12 54 -19
v 12 55 3
v 12 55 -3
v 12 58 8
v 12 58 6
v 12 58 2
v 12 58 -2
v 12 58 -6
v 12 58 -8
v 12 60 3
v 12 60 2
v 12 60 -2
v 12 60 -3
v 12 61 3
v 12 61 2
v 12 61 -2
v 12 61 -3
v 12 63 8
v 12 63 6
v 12 63 2
v 12 63 -2
v 12 63 -6
v 12 63 -8
v 12 64 8
v 12 64 6
v 12 64 4
v 12 64 2
v 12 64 -2
v 12 64 -4
v 12 64 -6
v 12 64 -8
v 12 65 8
v 12 65 7
v 12 65 6
v 12 65 4
v 12 65 3
v 12 65 2
v 12 65 -2
v 12 65 -3
v 12 65 -4
v 12 65 -6
v 12 65 -7
v 12 65 -8
v 12 66 16
v 12 66 12
v 12 66 7
v 12 66 3
v 12 66 -3
v 12 66 -7
v 12 66 -12
v 12 66 -16
v 12 69 19
v 12 69 12
v 12 69 9
v 12 69 -9
v 12 69 -12
v 12 69 -19
v 12 71 12
v 12 71 -12
v 13 48 9
v 13 48 -9
v 13 50 9
v 13 50 -9
v 13 64 8
v 13 64 6
v 13 64 4
v 13 64 2
v 13 64 -2
v 13 64 -4
v 13 64 -6
v 13 64 -8
v 13 65 8
v 13 65 7
v 13 65 6
v 13 65 4
v 13 65 3
v 13 65 2
v 13 65 -2
v 13 65 -3
v 13 65 -4
v 13 65 -6
v 13 65 -7
v 13 65 -8
v 13 66 7
v 13 66 3
v 13 66 -3
v 13 66 -7
v 14 24 10
v 14 24 -10
v 14 28 10
v 14 28 -10
v 14 48 10
v 14 48 -10
v 18 0 10
v 18 0 2
v 18 0 -2
v 18 0 -10
v 18 4 10
v 18 4 2
v 18 4 -2
v 18 4 -10
v 2 37 36
v 2 48 36
v 10 37 36
v 10 48 36
v 2 40 25
v 2 48 25
v 3 41 25
v 3 47 25
v 9 41 25
v 9 47 25
v 10 40 25
v 10 48 25
v 0 54 19
v 0 69 19
v 12 54 19
v 12 69 19
v 2 40 18
v 2 48 18
v 3 41 18
v 3 47 18
v 9 41 18
v 9 47 18
v 10 40 18
v 10 48 18
v 0 53 12
v 0 66 12
v 0 69 12
v 0 71 12
v 12 53 12
v 12 66 12
v 12 69 12
v 12 71 12
v -2 24 10
v -2 28 10
v -2 48 10
v 2 0 10
v 2 4 10
v 2 5 10
v 2 8 10
v 2 15 10
v 2 16 10
v 2 23 10
v 3 41 10
v 3 47 10
v 9 41 10
v 9 47 10
v 10 5 10
v 10 8 10
v 10 15 10
v 10 16 10
v 10 23 10
v 14 0 10
v 14 4 10
v 14 24 10
v 14 28 10
v 14 48 10
v 18 0 10
v 18 4 10
v -1 48 9
v -1 50 9
v 3 4 9
v 3 5 9
v 3 15 9
v 3 16 9
v 3 23 9
v 3 24 9
v 8 15 9
v 8 16 9
v 9 4 9
v 9 5 9
v 9 23 9
v 9 24 9
v 13 48 9
v 13 50 9
v 8 15 8
v 8 16 8
v 9 15 8
v 9 16 8
v 12 64 8
v 12 65 8
v 13 64 8
v 13 65 8
v 12 65 7
v 12 66 7
v 13 65 7
v 13 66 7
v 0 50 5
v 0 53 5
v 1 53 5
v 12 50 5
v 12 53 5
v 12 64 4
v 12 65 4
v 13 64 4
v 13 65 4
v 2 0 -2
v 2 4 -2
v 2 5 -2
v 2 8 -2
v 2 15 -2
v 2 16 -2
v 2 23 -2
v 10 5 -2
v 10 8 -2
v 10 15 -2
v 10 16 -2
v 10 23 -2
v 12 64 -2
v 12 65 -2
v 13 64 -2
v 13 65 -2
v 14 0 -2
v 14 4 -2
v 18 0 -2
v 18 4 -2
v 3 4 -3
v 3 5 -3
v 3 15 -3
v 3 16 -3
v 3 23 -3
v 3 24 -3
v 9 4 -3
v 9 5 -3
v 9 15 -3
v 9 16 -3
v 9 23 -3
v 9 24 -3
v 12 65 -3
v 12 66 -3
v 13 65 -3
v 13 66 -3
v 12 64 -6
v 12 65 -6
v 13 64 -6
v 13 65 -6
v 2 40 -11
v 2 48 -11
v 3 41 -11
v 3 47 -11
v 9 41 -11
v 9 47 -11
v 10 40 -11
v 10 48 -11
v 0 54 -16
v 0 66 -16
v 12 54 -16
v 12 66 -16
v 2 40 -19
v 2 48 -19
v 3 41 -19
v 3 47 -19
v 9 41 -19
v 9 47 -19
v 10 40 -19
v 10 48 -19
v 2 40 -26
v 2 48 -26
v 3 41 -26
v 3 47 -26
v 9 41 -26
v 9 47 -26
v 10 40 -26
v 10 48 -26
v 2 37 -28
v 2 40 -28
v 10 37 -28
v 10 40 -28
v 2 37 28
v 2 40 28
v 10 37 28
v 10 40 28
v 2 40 26
v 2 48 26
v 3 41 26
v 3 47 26
v 9 41 26
v 9 47 26
v 10 40 26
v 10 48 26
v 2 40 19
v 2 48 19
v 3 41 19
v 3 47 19
v 9 41 19
v 9 47 19
v 10 40 19
v 10 48 19
v 0 54 16
v 0 66 16
v 12 54 16
v 12 66 16
v 2 40 11
v 2 48 11
v 3 41 11
v 3 47 11
v 9 41 11
v 9 47 11
v 10 40 11
v 10 48 11
v 12 64 6
v 12 65 6
v 13 64 6
v 13 65 6
v 3 4 3
v 3 5 3
v 3 15 3
v 3 16 3
v 3 23 3
v 3 24 3
v 9 4 3
v 9 5 3
v 9 15 3
v 9 16 3
v 9 23 3
v 9 24 3
v 12 65 3
v 12 66 3
v 13 65 3
v 13 66 3
v 2 0 2
v 2 4 2
v 2 5 2
v 2 8 2
v 2 15 2
v 2 16 2
v 2 23 2
v 10 5 2
v 10 8 2
v 10 15 2
v 10 16 2
v 10 23 2
v 12 64 2
v 12 65 2
v 13 64 2
v 13 65 2
v 14 0 2
v 14 4 2
v 18 0 2
v 18 4 2
v 12 64 -4
v 12 65 -4
v 13 64 -4
v 13 65 -4
v 0 50 -5
v 0 53 -5
v 1 53 -5
v 12 50 -5
v 12 53 -5
v 12 65 -7
v 12 66 -7
v 13 65 -7
v 13 66 -7
v 8 15 -8
v 8 16 -8
v 9 15 -8
v 9 16 -8
v 12 64 -8
v 12 65 -8
v 13 64 -8
v 13 65 -8
v -1 48 -9
v -1 50 -9
v 3 4 -9
v 3 5 -9
v 3 15 -9
v 3 16 -9
v 3 23 -9
v 3 24 -9
v 8 15 -9
v 8 16 -9
v 9 4 -9
v 9 5 -9
v 9 23 -9
v 9 24 -9
v 13 48 -9
v 13 50 -9
v -2 24 -10
v -2 28 -10
v -2 48 -10
v 2 0 -10
v 2 4 -10
v 2 5 -10
v 2 8 -10
v 2 15 -10
v 2 16 -10
v 2 23 -10
v 3 41 -10
v 3 47 -10
v 9 41 -10
v 9 47 -10
v 10 5 -10
v 10 8 -10
v 10 15 -10
v 10 16 -10
v 10 23 -10
v 14 0 -10
v 14 4 -10
v 14 24 -10
v 14 28 -10
v 14 48 -10
v 18 0 -10
v 18 4 -10
v 0 53 -12
v 0 66 -12
v 0 69 -12
v 0 71 -12
v 12 53 -12
v 12 66 -12
v 12 69 -12
v 12 71 -12
v 2 40 -18
v 2 48 -18
v 3 41 -18
v 3 47 -18
v 9 41 -18
v 9 47 -18
v 10 40 -18
v 10 48 -18
v 0 54 -19
v 0 69 -19
v 12 54 -19
v 12 69 -19
v 2 40 -25
v 2 48 -25
v 3 41 -25
v 3 47 -25
v 9 41 -25
v 9 47 -25
v 10 40 -25
v 10 48 -25
v 2 37 -36
v 2 48 -36
v 10 37 -36
v 10 48 -36
v 2 0 10
v 14 0 10
v 18 0 10
v 2 0 2
v 14 0 2
v 18 0 2
v 2 0 -2
v 14 0 -2
v 18 0 -2
v 2 0 -10
v 14 0 -10
v 18 0 -10
v 2 5 10
v 10 5 10
v 3 5 9
v 9 5 9
v 3 5 3
v 9 5 3
v 2 5 2
v 10 5 2
v 2 5 -2
v 10 5 -2
v 3 5 -3
v 9 5 -3
v 3 5 -9
v 9 5 -9
v 2 5 -10
v 10 5 -10
v 2 16 10
v 10 16 10
v 3 16 9
v 8 16 9
v 8 16 8
v 9 16 8
v 3 16 3
v 9 16 3
v 2 16 2
v 10 16 2
v 2 16 -2
v 10 16 -2
v 3 16 -3
v 9 16 -3
v 8 16 -8
v 9 16 -8
v 3 16 -9
v 8 16 -9
v 2 16 -10
v 10 16 -10
v -2 24 10
v 14 24 10
v 3 24 9
v 9 24 9
v 3 24 3
v 9 24 3
v 3 24 -3
v 9 24 -3
v 3 24 -9
v 9 24 -9
v -2 24 -10
v 14 24 -10
v 2 37 36
v 10 37 36
v 2 37 28
v 10 37 28
v 2 37 -28
v 10 37 -28
v 2 37 -36
v 10 37 -36
v 2 40 28
v 10 40 28
v 2 40 26
v 10 40 26
v 2 40 25
v 10 40 25
v 2 40 19
v 10 40 19
v 2 40 18
v 10 40 18
v 2 40 11
v 10 40 11
v 2 40 -11
v 10 40 -11
v 2 40 -18
v 10 40 -18
v 2 40 -19
v 10 40 -19
v 2 40 -25
v 10 40 -25
v 2 40 -26
v 10 40 -26
v 2 40 -28
v 10 40 -28
v 3 41 26
v 9 41 26
v 3 41 25
v 9 41 25
v 3 41 19
v 9 41 19
v 3 41 18
v 9 41 18
v 3 41 11
v 9 41 11
v 3 41 10
v 9 41 10
v 3 41 -10
v 9 41 -10
v 3 41 -11
v 9 41 -11
v 3 41 -18
v 9 41 -18
v 3 41 -19
v 9 41 -19
v 3 41 -25
v 9 41 -25
v 3 41 -26
v 9 41 -26
v 0 53 12
v 12 53 12
v 1 53 9
v 12 53 9
v 0 53 5
v 1 53 5
v 12 53 5
v 0 53 -5
v 1 53 -5
v 12 53 -5
v 1 53 -9
v 12 53 -9
v 0 53 -12
v 12 53 -12
v 0 54 19
v 12 54 19
v 0 54 16
v 12 54 16
v 0 54 -16
v 12 54 -16
v 0 54 -19
v 12 54 -19
v 12 64 8
v 13 64 8
v 12 64 6
v 13 64 6
v 12 64 4
v 13 64 4
v 12 64 2
v 13 64 2
v 12 64 -2
v 13 64 -2
v 12 64 -4
v 13 64 -4
v 12 64 -6
v 13 64 -6
v 12 64 -8
v 13 64 -8
v 12 65 6
v 13 65 6
v 12 65 4
v 13 65 4
v 12 65 -4
v 13 65 -4
v 12 65 -6
v 13 65 -6
v 0 66 16
v 12 66 16
v 0 66 12
v 12 66 12
v 0 66 -12
v 12 66 -12
v 0 66 -16
v 12 66 -16
v 2 4 10
v 14 4 10
v 18 4 10
v 3 4 9
v 9 4 9
v 3 4 3
v 9 4 3
v 2 4 2
v 14 4 2
v 18 4 2
v 2 4 -2
v 14 4 -2
v 18 4 -2
v 3 4 -3
v 9 4 -3
v 3 4 -9
v 9 4 -9
v 2 4 -10
v 14 4 -10
v 18 4 -10
v 2 15 10
v 10 15 10
v 3 15 9
v 8 15 9
v 8 15 8
v 9 15 8
v 3 15 3
v 9 15 3
v 2 15 2
v 10 15 2
v 2 15 -2
v 10 15 -2
v 3 15 -3
v 9 15 -3
v 8 15 -8
v 9 15 -8
v 3 15 -9
v 8 15 -9
v 2 15 -10
v 10 15 -10
v 2 23 10
v 10 23 10
v 3 23 9
v 9 23 9
v 3 23 3
v 9 23 3
v 2 23 2
v 10 23 2
v 2 23 -2
v 10 23 -2
v 3 23 -3
v 9 23 -3
v 3 23 -9
v 9 23 -9
v 2 23 -10
v 10 23 -10
v 3 47 26
v 9 47 26
v 3 47 25
v 9 47 25
v 3 47 19
v 9 47 19
v 3 47 18
v 9 47 18
v 3 47 11
v 9 47 11
v 3 47 10
v 9 47 10
v 3 47 -10
v 9 47 -10
v 3 47 -11
v 9 47 -11
v 3 47 -18
v 9 47 -18
v 3 47 -19
v 9 47 -19
v 3 47 -25
v 9 47 -25
v 3 47 -26
v 9 47 -26
v 2 48 36
v 10 48 36
v 2 48 26
v 10 48 26
v 2 48 25
v 10 48 25
v 2 48 19
v 10 48 19
v 2 48 18
v 10 48 18
v 2 48 11
v 10 48 11
v -2 48 10
v 14 48 10
v -1 48 9
v 13 48 9
v -1 48 -9
v 13 48 -9
v -2 48 -10
v 14 48 -10
v 2 48 -11
v 10 48 -11
v 2 48 -18
v 10 48 -18
v 2 48 -19
v 10 48 -19
v 2 48 -25
v 10 48 -25
v 2 48 -26
v 10 48 -26
v 2 48 -36
v 10 48 -36
v -1 50 9
v 13 50 9
v 0 50 5
v 12 50 5
v 0 50 -5
v 12 50 -5
v -1 50 -9
v 13 50 -9
v 12 65 8
v 13 65 8
v 12 65 7
v 13 65 7
v 12 65 3
v 13 65 3
v 12 65 2
v 13 65 2
v 12 65 -2
v 13 65 -2
v 12 65 -3
v 13 65 -3
v 12 65 -7
v 13 65 -7
v 12 65 -8
v 13 65 -8
v 12 66 7
v 13 66 7
v 12 66 3
v 13 66 3
v 12 66 -3
v 13 66 -3
v 12 66 -7
v 13 66 -7
v 0 69 19
v 12 69 19
v 0 69 12
v 12 69 12
v 0 69 -12
v 12 69 -12
v 0 69 -19
v 12 69 -19
v 0 71 12
v 12 71 12
v 0 71 -12
v 12 71 -12

# faces
f 3/5/1 2/5/1 1/5/1
f 4/5/1 2/5/1 3/5/1
f 5/7/1 4/7/1 3/7/1
f 6/7/1 4/7/1 5/7/1
f 9/7/1 8/7/1 7/7/1
f 10/7/1 8/7/1 9/7/1
f 14/1/1 12/1/1 11/1/1
f 15/1/1 12/1/1 14/1/1
f 21/9/1 18/9/1 17/9/1
f 22/9/1 14/9/1 13/9/1
f 22/9/1 15/9/1 14/9/1
f 22/9/1 16/9/1 15/9/1
f 23/9/1 16/9/1 22/9/1
f 24/9/1 20/9/1 19/9/1
f 25/9/1 21/9/1 17/9/1
f 25/9/1 24/9/1 23/9/1
f 25/9/1 23/9/1 22/9/1
f 25/9/1 22/9/1 21/9/1
f 26/9/1 24/9/1 25/9/1
f 27/9/1 24/9/1 26/9/1
f 28/9/1 20/9/1 24/9/1
f 28/9/1 24/9/1 27/9/1
f 29/9/1 27/9/1 26/9/1
f 30/9/1 27/9/1 29/9/1
f 35/6/1 32/6/1 31/6/1
f 36/6/1 32/6/1 35/6/1
f 37/6/1 34/6/1 33/6/1
f 38/6/1 34/6/1 37/6/1
f 43/4/1 40/4/1 39/4/1
f 44/4/1 40/4/1 43/4/1
f 45/4/1 42/4/1 41/4/1
f 46/4/1 42/4/1 45/4/1
f 47/5/1 44/5/1 43/5/1
f 48/5/1 44/5/1 47/5/1
f 49/5/1 46/5/1 45/5/1
f 50/5/1 46/5/1 49/5/1
f 55/5/1 52/5/1 51/5/1
f 56/5/1 52/5/1 55/5/1
f 57/5/1 54/5/1 53/5/1
f 58/5/1 54/5/1 57/5/1
f 63/1/1 60/1/1 59/1/1
f 74/1/1 62/1/1 61/1/1
f 75/1/1 63/1/1 59/1/1
f 75/1/1 64/1/1 63/1/1
f 76/1/1 64/1/1 75/1/1
f 77/7/1 66/7/1 65/7/1
f 78/7/1 66/7/1 77/7/1
f 79/7/1 68/7/1 67/7/1
f 80/7/1 68/7/1 79/7/1
f 81/7/1 70/7/1 69/7/1
f 82/7/1 70/7/1 81/7/1
f 83/7/1 72/7/1 71/7/1
f 84/7/1 72/7/1 83/7/1
f 85/1/1 74/1/1 73/1/1
f 86/1/1 62/1/1 74/1/1
f 86/1/1 74/1/1 85/1/1
f 91/4/1 88/4/1 87/4/1
f 92/4/1 88/4/1 91/4/1
f 93/4/1 90/4/1 89/4/1
f 94/4/1 90/4/1 93/4/1
f 99/5/1 96/5/1 95/5/1
f 100/5/1 96/5/1 99/5/1
f 101/5/1 98/5/1 97/5/1
f 102/5/1 98/5/1 101/5/1
f 107/5/1 104/5/1 103/5/1
f 108/5/1 104/5/1 107/5/1
f 109/5/1 106/5/1 105/5/1
f 110/5/1 106/5/1 109/5/1
f 123/7/1 112/7/1 111/7/1
f 124/7/1 112/7/1 123/7/1
f 125/7/1 114/7/1 113/7/1
f 126/7/1 114/7/1 125/7/1
f 127/7/1 116/7/1 115/7/1
f 128/7/1 116/7/1 127/7/1
f 129/7/1 118/7/1 117/7/1
f 130/7/1 118/7/1 129/7/1
f 131/7/1 120/7/1 119/7/1
f 132/7/1 120/7/1 131/7/1
f 133/7/1 122/7/1 121/7/1
f 134/7/1 122/7/1 133/7/1
f 135/5/2 136/5/2 139/5/2
f 139/5/2 136/5/2 140/5/2
f 137/5/2 138/5/2 141/5/2
f 141/5/2 138/5/2 142/5/2
f 143/4/2 144/4/2 147/4/2
f 147/4/2 144/4/2 148/4/2
f 145/4/2 146/4/2 149/4/2
f 149/4/2 146/4/2 150/4/2
f 151/5/2 152/5/2 155/5/2
f 155/5/2 152/5/2 156/5/2
f 153/5/2 154/5/2 157/5/2
f 157/5/2 154/5/2 158/5/2
f 159/5/2 160/5/2 163/5/2
f 163/5/2 160/5/2 164/5/2
f 161/5/2 162/5/2 165/5/2
f 165/5/2 162/5/2 166/5/2
f 167/7/2 168/7/2 179/7/2
f 179/7/2 168/7/2 180/7/2
f 169/7/2 170/7/2 181/7/2
f 181/7/2 170/7/2 182/7/2
f 171/7/2 172/7/2 183/7/2
f 183/7/2 172/7/2 184/7/2
f 173/7/2 174/7/2 185/7/2
f 185/7/2 174/7/2 186/7/2
f 175/7/2 176/7/2 187/7/2
f 187/7/2 176/7/2 188/7/2
f 177/7/2 178/7/2 189/7/2
f 189/7/2 178/7/2 190/7/2
f 191/4/2 192/4/2 195/4/2
f 195/4/2 192/4/2 196/4/2
f 193/4/2 194/4/2 197/4/2
f 197/4/2 194/4/2 198/4/2
f 195/5/2 196/5/2 199/5/2
f 199/5/2 196/5/2 200/5/2
f 197/5/2 198/5/2 201/5/2
f 201/5/2 198/5/2 202/5/2
f 203/5/2 204/5/2 207/5/2
f 207/5/2 204/5/2 208/5/2
f 205/5/2 206/5/2 209/5/2
f 209/5/2 206/5/2 210/5/2
f 211/1/2 212/1/2 215/1/2
f 213/1/2 214/1/2 226/1/2
f 211/1/2 215/1/2 227/1/2
f 215/1/2 216/1/2 227/1/2
f 227/1/2 216/1/2 228/1/2
f 217/7/2 218/7/2 229/7/2
f 229/7/2 218/7/2 230/7/2
f 219/7/2 220/7/2 231/7/2
f 231/7/2 220/7/2 232/7/2
f 221/7/2 222/7/2 233/7/2
f 233/7/2 222/7/2 234/7/2
f 223/7/2 224/7/2 235/7/2
f 235/7/2 224/7/2 236/7/2
f 225/1/2 226/1/2 237/1/2
f 226/1/2 214/1/2 238/1/2
f 237/1/2 226/1/2 238/1/2
f 239/1/2 240/1/2 243/1/2
f 243/1/2 240/1/2 244/1/2
f 242/1/2 243/1/2 249/1/2
f 243/1/2 244/1/2 249/1/2
f 244/1/2 245/1/2 249/1/2
f 249/1/2 245/1/2 250/1/2
f 242/1/2 249/1/2 253/1/2
f 249/2/2 250/2/2 253/2/2
f 250/1/2 245/1/2 254/1/2
f 253/2/2 250/2/2 254/2/2
f 242/1/2 253/1/2 255/1/2
f 253/1/2 254/1/2 255/1/2
f 255/1/2 254/1/2 256/1/2
f 256/1/2 254/1/2 257/1/2
f 257/1/2 254/1/2 258/1/2
f 254/1/2 245/1/2 259/1/2
f 258/1/2 254/1/2 259/1/2
f 259/1/2 245/1/2 260/1/2
f 256/9/2 257/9/2 261/9/2
f 257/1/2 258/1/2 262/1/2
f 261/9/2 257/9/2 262/9/2
f 258/9/2 259/9/2 263/9/2
f 262/1/2 258/1/2 263/1/2
f 263/9/2 259/9/2 264/9/2
f 256/9/2 261/9/2 265/9/2
f 261/7/2 262/7/2 265/7/2
f 262/1/2 263/1/2 266/1/2
f 265/7/2 262/7/2 266/7/2
f 263/7/2 264/7/2 267/7/2
f 266/1/2 263/1/2 267/1/2
f 264/9/2 259/9/2 268/9/2
f 267/7/2 264/7/2 268/7/2
f 242/1/2 255/1/2 269/1/2
f 255/7/2 256/7/2 269/7/2
f 265/9/2 266/9/2 270/9/2
f 269/7/2 256/7/2 270/7/2
f 256/9/2 265/9/2 270/9/2
f 266/1/2 267/1/2 271/1/2
f 270/9/2 266/9/2 271/9/2
f 267/9/2 268/9/2 272/9/2
f 271/1/2 267/1/2 272/1/2
f 268/9/2 259/9/2 273/9/2
f 272/9/2 268/9/2 273/9/2
f 259/7/2 260/7/2 273/7/2
f 260/1/2 245/1/2 274/1/2
f 273/7/2 260/7/2 274/7/2
f 269/1/2 270/1/2 275/1/2
f 271/1/2 272/1/2 275/1/2
f 273/1/2 274/1/2 275/1/2
f 242/1/2 269/1/2 275/1/2
f 272/1/2 273/1/2 275/1/2
f 270/1/2 271/1/2 275/1/2
f 275/1/2 274/1/2 276/1/2
f 276/1/2 274/1/2 277/1/2
f 277/1/2 274/1/2 278/1/2
f 278/1/2 274/1/2 279/1/2
f 279/1/2 274/1/2 280/1/2
f 280/1/2 274/1/2 281/1/2
f 274/1/2 245/1/2 282/1/2
f 281/1/2 274/1/2 282/1/2
f 242/1/2 275/1/2 283/1/2
f 276/1/2 277/1/2 285/1/2
f 285/1/2 277/1/2 286/1/2
f 278/1/2 279/1/2 288/1/2
f 288/1/2 279/1/2 289/1/2
f 280/1/2 281/1/2 291/1/2
f 291/1/2 281/1/2 292/1/2
f 282/1/2 245/1/2 294/1/2
f 247/9/2 248/9/2 295/9/2
f 241/9/2 242/9/2 296/9/2
f 283/1/2 284/1/2 297/1/2
f 289/1/2 290/1/2 298/1/2
f 287/1/2 288/1/2 298/1/2
f 288/1/2 289/1/2 298/1/2
f 298/1/2 290/1/2 299/1/2
f 293/1/2 294/1/2 300/1/2
f 245/9/2 246/9/2 301/9/2
f 251/9/2 252/9/2 302/9/2
f 247/9/2 295/9/2 303/9/2
f 295/9/2 296/9/2 303/9/2
f 296/9/2 242/9/2 304/9/2
f 303/9/2 296/9/2 304/9/2
f 298/1/2 299/1/2 305/1/2
f 304/9/2 242/9/2 305/9/2
f 299/1/2 300/1/2 305/1/2
f 283/1/2 297/1/2 305/1/2
f 242/1/2 283/1/2 305/1/2
f 297/1/2 298/1/2 305/1/2
f 301/9/2 302/9/2 306/9/2
f 305/1/2 300/1/2 306/1/2
f 245/9/2 301/9/2 306/9/2
f 300/1/2 294/1/2 306/1/2
f 294/1/2 245/1/2 306/1/2
f 306/9/2 302/9/2 307/9/2
f 302/9/2 252/9/2 308/9/2
f 307/9/2 302/9/2 308/9/2
f 304/9/2 305/9/2 309/9/2
f 305/9/2 306/9/2 309/9/2
f 306/9/2 307/9/2 309/9/2
f 309/9/2 307/9/2 310/9/2
f 311/7/2 312/7/2 313/7/2
f 313/7/2 312/7/2 314/7/2
f 315/8/2 316/8/2 323/8/2
f 323/8/2 316/8/2 324/8/2
f 324/8/2 316/8/2 325/8/2
f 317/8/2 318/8/2 326/8/2
f 326/8/2 318/8/2 327/8/2
f 327/8/2 318/8/2 328/8/2
f 319/8/2 320/8/2 329/8/2
f 329/8/2 320/8/2 330/8/2
f 330/8/2 320/8/2 331/8/2
f 321/8/2 322/8/2 332/8/2
f 332/8/2 322/8/2 333/8/2
f 333/8/2 322/8/2 334/8/2
f 324/8/2 325/8/2 335/8/2
f 325/8/2 326/8/2 335/8/2
f 326/8/2 327/8/2 335/8/2
f 335/8/2 327/8/2 336/8/2
f 330/8/2 331/8/2 337/8/2
f 332/8/2 333/8/2 337/8/2
f 331/8/2 332/8/2 337/8/2
f 337/8/2 333/8/2 338/8/2
f 339/5/2 340/5/2 341/5/2
f 341/5/2 340/5/2 342/5/2
f 341/7/2 342/7/2 343/7/2
f 343/7/2 342/7/2 344/7/2
f 345/7/2 346/7/2 349/7/2
f 349/7/2 346/7/2 350/7/2
f 347/7/2 348/7/2 351/7/2
f 351/7/2 348/7/2 352/7/2
f 355/1/3 354/1/3 353/1/3
f 356/1/3 354/1/3 355/1/3
f 359/7/3 358/7/3 357/7/3
f 360/7/3 358/7/3 359/7/3
f 361/7/3 359/7/3 357/7/3
f 362/7/3 358/7/3 360/7/3
f 363/7/3 361/7/3 357/7/3
f 363/7/3 362/7/3 361/7/3
f 364/7/3 358/7/3 362/7/3
f 364/7/3 362/7/3 363/7/3
f 367/9/3 366/9/3 365/9/3
f 368/9/3 366/9/3 367/9/3
f 371/7/3 370/7/3 369/7/3
f 372/7/3 370/7/3 371/7/3
f 373/7/3 371/7/3 369/7/3
f 374/7/3 370/7/3 372/7/3
f 375/7/3 373/7/3 369/7/3
f 375/7/3 374/7/3 373/7/3
f 376/7/3 370/7/3 374/7/3
f 376/7/3 374/7/3 375/7/3
f 381/9/3 378/9/3 377/9/3
f 382/9/3 378/9/3 381/9/3
f 383/9/3 380/9/3 379/9/3
f 384/9/3 380/9/3 383/9/3
f 395/7/3 387/7/3 386/7/3
f 396/7/3 387/7/3 395/7/3
f 397/7/3 395/7/3 386/7/3
f 398/7/3 387/7/3 396/7/3
f 399/4/3 391/4/3 390/4/3
f 400/5/3 392/5/3 391/5/3
f 400/4/3 391/4/3 399/4/3
f 401/5/3 392/5/3 400/5/3
f 402/5/3 394/5/3 393/5/3
f 403/5/3 394/5/3 402/5/3
f 404/6/3 389/6/3 388/6/3
f 405/6/3 389/6/3 404/6/3
f 406/5/3 386/5/3 385/5/3
f 407/7/3 398/7/3 397/7/3
f 407/5/3 386/5/3 406/5/3
f 407/7/3 397/7/3 386/7/3
f 408/7/3 387/7/3 398/7/3
f 408/7/3 398/7/3 407/7/3
f 409/7/3 405/7/3 404/7/3
f 410/7/3 405/7/3 409/7/3
f 419/5/3 416/5/3 415/5/3
f 420/5/3 416/5/3 419/5/3
f 421/4/3 414/4/3 413/4/3
f 422/4/3 414/4/3 421/4/3
f 423/5/3 418/5/3 417/5/3
f 424/5/3 418/5/3 423/5/3
f 425/7/3 412/7/3 411/7/3
f 426/7/3 412/7/3 425/7/3
f 429/5/3 428/5/3 427/5/3
f 430/5/3 428/5/3 429/5/3
f 433/8/3 432/8/3 431/8/3
f 434/8/3 432/8/3 433/8/3
f 437/8/3 436/8/3 435/8/3
f 438/8/3 436/8/3 437/8/3
f 441/1/3 440/1/3 439/1/3
f 442/1/3 441/1/3 439/1/3
f 443/1/3 441/1/3 442/1/3
f 446/8/3 445/8/3 444/8/3
f 447/8/3 445/8/3 446/8/3
f 455/4/3 451/4/3 450/4/3
f 456/5/3 452/5/3 451/5/3
f 456/4/3 451/4/3 455/4/3
f 457/5/3 452/5/3 456/5/3
f 458/5/3 454/5/3 453/5/3
f 459/5/3 454/5/3 458/5/3
f 462/8/3 461/8/3 460/8/3
f 463/8/3 461/8/3 462/8/3
f 464/6/3 449/6/3 448/6/3
f 465/6/3 449/6/3 464/6/3
f 466/7/3 465/7/3 464/7/3
f 467/7/3 465/7/3 466/7/3
f 474/4/3 469/4/3 468/4/3
f 475/4/3 469/4/3 474/4/3
f 476/5/3 471/5/3 470/5/3
f 477/5/3 471/5/3 476/5/3
f 478/5/3 473/5/3 472/5/3
f 479/5/3 473/5/3 478/5/3
f 482/8/3 481/8/3 480/8/3
f 483/8/3 481/8/3 482/8/3
f 486/8/3 485/8/3 484/8/3
f 487/8/3 485/8/3 486/8/3
f 490/7/3 489/7/3 488/7/3
f 491/7/3 489/7/3 490/7/3
f 492/7/3 490/7/3 488/7/3
f 493/7/3 489/7/3 491/7/3
f 494/7/3 492/7/3 488/7/3
f 494/7/3 493/7/3 492/7/3
f 495/7/3 489/7/3 493/7/3
f 495/7/3 493/7/3 494/7/3
f 498/9/3 497/9/3 496/9/3
f 499/9/3 497/9/3 498/9/3
f 502/7/3 501/7/3 500/7/3
f 503/7/3 501/7/3 502/7/3
f 504/7/3 502/7/3 500/7/3
f 505/7/3 501/7/3 503/7/3
f 506/7/3 504/7/3 500/7/3
f 506/7/3 505/7/3 504/7/3
f 507/7/3 501/7/3 505/7/3
f 507/7/3 505/7/3 506/7/3
f 510/1/3 509/1/3 508/1/3
f 511/1/3 509/1/3 510/1/3
f 512/1/3 510/1/3 508/1/3
f 513/1/3 509/1/3 511/1/3
f 514/1/3 512/1/3 508/1/3
f 514/1/3 513/1/3 512/1/3
f 515/1/3 509/1/3 513/1/3
f 515/1/3 513/1/3 514/1/3
f 518/1/3 517/1/3 516/1/3
f 519/1/3 517/1/3 518/1/3
f 520/1/4 521/1/4 522/1/4
f 522/1/4 521/1/4 523/1/4
f 524/1/4 525/1/4 526/1/4
f 526/1/4 525/1/4 527/1/4
f 524/1/4 526/1/4 528/1/4
f 527/1/4 525/1/4 529/1/4
f 524/1/4 528/1/4 530/1/4
f 528/1/4 529/1/4 530/1/4
f 529/1/4 525/1/4 531/1/4
f 530/1/4 529/1/4 531/1/4
f 532/7/4 533/7/4 534/7/4
f 534/7/4 533/7/4 535/7/4
f 532/7/4 534/7/4 536/7/4
f 535/7/4 533/7/4 537/7/4
f 532/7/4 536/7/4 538/7/4
f 536/7/4 537/7/4 538/7/4
f 537/7/4 533/7/4 539/7/4
f 538/7/4 537/7/4 539/7/4
f 540/9/4 541/9/4 542/9/4
f 542/9/4 541/9/4 543/9/4
f 544/7/4 545/7/4 546/7/4
f 546/7/4 545/7/4 547/7/4
f 544/7/4 546/7/4 548/7/4
f 547/7/4 545/7/4 549/7/4
f 544/7/4 548/7/4 550/7/4
f 548/7/4 549/7/4 550/7/4
f 549/7/4 545/7/4 551/7/4
f 550/7/4 549/7/4 551/7/4
f 552/8/4 553/8/4 554/8/4
f 554/8/4 553/8/4 555/8/4
f 556/4/4 557/4/4 562/4/4
f 562/4/4 557/4/4 563/4/4
f 558/5/4 559/5/4 564/5/4
f 564/5/4 559/5/4 565/5/4
f 560/5/4 561/5/4 566/5/4
f 566/5/4 561/5/4 567/5/4
f 568/8/4 569/8/4 570/8/4
f 570/8/4 569/8/4 571/8/4
f 574/4/4 575/4/4 579/4/4
f 575/5/4 576/5/4 580/5/4
f 579/4/4 575/4/4 580/4/4
f 580/5/4 576/5/4 581/5/4
f 577/5/4 578/5/4 582/5/4
f 582/5/4 578/5/4 583/5/4
f 584/8/4 585/8/4 586/8/4
f 586/8/4 585/8/4 587/8/4
f 572/6/4 573/6/4 588/6/4
f 588/6/4 573/6/4 589/6/4
f 588/7/4 589/7/4 590/7/4
f 590/7/4 589/7/4 591/7/4
f 592/8/4 593/8/4 594/8/4
f 594/8/4 593/8/4 595/8/4
f 596/1/4 597/1/4 598/1/4
f 596/1/4 598/1/4 599/1/4
f 599/1/4 598/1/4 600/1/4
f 601/8/4 602/8/4 603/8/4
f 603/8/4 602/8/4 604/8/4
f 605/5/4 606/5/4 607/5/4
f 607/5/4 606/5/4 608/5/4
f 609/8/4 610/8/4 611/8/4
f 611/8/4 610/8/4 612/8/4
f 617/5/4 618/5/4 621/5/4
f 621/5/4 618/5/4 622/5/4
f 615/4/4 616/4/4 623/4/4
f 623/4/4 616/4/4 624/4/4
f 619/5/4 620/5/4 625/5/4
f 625/5/4 620/5/4 626/5/4
f 613/7/4 614/7/4 627/7/4
f 627/7/4 614/7/4 628/7/4
f 630/7/4 631/7/4 639/7/4
f 639/7/4 631/7/4 640/7/4
f 630/7/4 639/7/4 641/7/4
f 640/7/4 631/7/4 642/7/4
f 634/4/4 635/4/4 643/4/4
f 635/5/4 636/5/4 644/5/4
f 643/4/4 635/4/4 644/4/4
f 644/5/4 636/5/4 645/5/4
f 637/5/4 638/5/4 646/5/4
f 646/5/4 638/5/4 647/5/4
f 632/6/4 633/6/4 648/6/4
f 648/6/4 633/6/4 649/6/4
f 629/5/4 630/5/4 650/5/4
f 641/7/4 642/7/4 651/7/4
f 650/5/4 630/5/4 651/5/4
f 630/7/4 641/7/4 651/7/4
f 642/7/4 631/7/4 652/7/4
f 651/7/4 642/7/4 652/7/4
f 648/7/4 649/7/4 653/7/4
f 653/7/4 649/7/4 654/7/4
f 655/9/4 656/9/4 659/9/4
f 659/9/4 656/9/4 660/9/4
f 657/9/4 658/9/4 661/9/4
f 661/9/4 658/9/4 662/9/4
f 663/7/4 664/7/4 665/7/4
f 665/7/4 664/7/4 666/7/4
f 663/7/4 665/7/4 667/7/4
f 666/7/4 664/7/4 668/7/4
f 663/7/4 667/7/4 669/7/4
f 667/7/4 668/7/4 669/7/4
f 668/7/4 664/7/4 670/7/4
f 669/7/4 668/7/4 670/7/4
f 671/9/4 672/9/4 673/9/4
f 673/9/4 672/9/4 674/9/4
f 675/7/4 676/7/4 677/7/4
f 677/7/4 676/7/4 678/7/4
f 675/7/4 677/7/4 679/7/4
f 678/7/4 676/7/4 680/7/4
f 675/7/4 679/7/4 681/7/4
f 679/7/4 680/7/4 681/7/4
f 680/7/4 676/7/4 682/7/4
f 681/7/4 680/7/4 682/7/4
f 683/1/4 684/1/4 685/1/4
f 685/1/4 684/1/4 686/1/4
f 690/6/5 688/6/5 687/6/5
f 691/7/5 689/7/5 688/7/5
f 691/6/5 688/6/5 690/6/5
f 692/7/5 689/7/5 691/7/5
f 696/6/5 694/6/5 693/6/5
f 697/7/5 695/7/5 694/7/5
f 697/6/5 694/6/5 696/6/5
f 698/7/5 695/7/5 697/7/5
f 701/4/5 700/4/5 699/4/5
f 702/4/5 700/4/5 701/4/5
f 703/4/5 701/4/5 699/4/5
f 704/4/5 700/4/5 702/4/5
f 705/4/5 703/4/5 699/4/5
f 705/4/5 704/4/5 703/4/5
f 706/4/5 700/4/5 704/4/5
f 706/4/5 704/4/5 705/4/5
f 709/4/5 708/4/5 707/4/5
f 710/4/5 708/4/5 709/4/5
f 711/4/5 709/4/5 707/4/5
f 712/4/5 708/4/5 710/4/5
f 713/4/5 711/4/5 707/4/5
f 713/4/5 712/4/5 711/4/5
f 714/4/5 708/4/5 712/4/5
f 714/4/5 712/4/5 713/4/5
f 717/5/5 716/5/5 715/5/5
f 718/5/5 716/5/5 717/5/5
f 719/5/5 716/5/5 718/5/5
f 720/5/5 716/5/5 719/5/5
f 721/5/5 717/5/5 715/5/5
f 722/5/5 716/5/5 720/5/5
f 723/5/5 721/5/5 715/5/5
f 723/5/5 722/5/5 721/5/5
f 724/5/5 716/5/5 722/5/5
f 724/5/5 722/5/5 723/5/5
f 727/5/5 726/5/5 725/5/5
f 728/5/5 726/5/5 727/5/5
f 730/5/5 726/5/5 728/5/5
f 731/5/5 727/5/5 725/5/5
f 732/5/5 730/5/5 729/5/5
f 733/5/5 731/5/5 725/5/5
f 733/5/5 732/5/5 731/5/5
f 734/5/5 730/5/5 732/5/5
f 734/5/5 732/5/5 733/5/5
f 734/5/5 726/5/5 730/5/5
f 737/5/5 736/5/5 735/5/5
f 738/5/5 736/5/5 737/5/5
f 739/5/5 737/5/5 735/5/5
f 740/5/5 736/5/5 738/5/5
f 741/5/5 739/5/5 735/5/5
f 741/5/5 740/5/5 739/5/5
f 742/5/5 736/5/5 740/5/5
f 742/5/5 740/5/5 741/5/5
f 743/5/5 741/5/5 735/5/5
f 744/5/5 736/5/5 742/5/5
f 745/5/5 743/5/5 735/5/5
f 745/5/5 744/5/5 743/5/5
f 746/5/5 736/5/5 744/5/5
f 746/5/5 744/5/5 745/5/5
f 749/1/5 748/1/5 747/1/5
f 750/1/5 748/1/5 749/1/5
f 753/1/5 752/1/5 751/1/5
f 754/1/5 752/1/5 753/1/5
f 757/1/5 756/1/5 755/1/5
f 758/1/5 756/1/5 757/1/5
f 761/7/5 760/7/5 759/7/5
f 762/7/5 760/7/5 761/7/5
f 765/7/5 764/7/5 763/7/5
f 766/7/5 764/7/5 765/7/5
f 769/7/5 768/7/5 767/7/5
f 770/7/5 768/7/5 769/7/5
f 773/7/5 772/7/5 771/7/5
f 774/7/5 772/7/5 773/7/5
f 777/1/5 776/1/5 775/1/5
f 778/1/5 776/1/5 777/1/5
f 781/7/5 780/7/5 779/7/5
f 782/7/5 780/7/5 781/7/5
f 785/7/5 784/7/5 783/7/5
f 786/7/5 784/7/5 785/7/5
f 789/7/5 788/7/5 787/7/5
f 790/7/5 788/7/5 789/7/5
f 793/7/5 792/7/5 791/7/5
f 794/7/5 792/7/5 793/7/5
f 797/7/5 796/7/5 795/7/5
f 798/7/5 796/7/5 797/7/5
f 801/7/5 800/7/5 799/7/5
f 802/7/5 800/7/5 801/7/5
f 805/9/5 804/9/5 803/9/5
f 806/9/5 804/9/5 805/9/5
f 807/9/5 805/9/5 803/9/5
f 808/1/5 806/1/5 805/1/5
f 808/9/5 805/9/5 807/9/5
f 809/1/5 806/1/5 808/1/5
f 813/9/5 811/9/5 810/9/5
f 813/1/5 812/1/5 811/1/5
f 814/1/5 812/1/5 813/1/5
f 815/9/5 813/9/5 810/9/5
f 815/9/5 814/9/5 813/9/5
f 816/9/5 814/9/5 815/9/5
f 819/9/5 818/9/5 817/9/5
f 820/9/5 818/9/5 819/9/5
f 823/9/5 822/9/5 821/9/5
f 824/9/5 822/9/5 823/9/5
f 827/8/5 826/8/5 825/8/5
f 828/8/5 826/8/5 827/8/5
f 831/8/5 830/8/5 829/8/5
f 832/8/5 830/8/5 831/8/5
f 835/8/5 834/8/5 833/8/5
f 836/8/5 834/8/5 835/8/5
f 839/8/5 838/8/5 837/8/5
f 840/8/5 838/8/5 839/8/5
f 843/8/5 842/8/5 841/8/5
f 844/8/5 842/8/5 843/8/5
f 847/8/5 846/8/5 845/8/5
f 848/8/5 846/8/5 847/8/5
f 851/9/5 850/9/5 849/9/5
f 852/9/5 850/9/5 851/9/5
f 855/9/5 854/9/5 853/9/5
f 856/9/5 854/9/5 855/9/5
f 857/6/6 858/6/6 860/6/6
f 860/6/6 858/6/6 861/6/6
f 857/6/6 860/6/6 862/6/6
f 861/6/6 858/6/6 863/6/6
f 857/6/6 862/6/6 864/6/6
f 862/6/6 863/6/6 864/6/6
f 858/7/6 859/7/6 865/7/6
f 864/6/6 863/6/6 865/6/6
f 863/6/6 858/6/6 865/6/6
f 865/7/6 859/7/6 866/7/6
f 867/6/6 868/6/6 870/6/6
f 870/6/6 868/6/6 871/6/6
f 867/6/6 870/6/6 872/6/6
f 871/6/6 868/6/6 873/6/6
f 867/6/6 872/6/6 874/6/6
f 872/6/6 873/6/6 874/6/6
f 868/7/6 869/7/6 875/7/6
f 874/6/6 873/6/6 875/6/6
f 873/6/6 868/6/6 875/6/6
f 875/7/6 869/7/6 876/7/6
f 877/5/6 878/5/6 879/5/6
f 879/5/6 878/5/6 880/5/6
f 880/5/6 878/5/6 881/5/6
f 881/5/6 878/5/6 882/5/6
f 877/5/6 879/5/6 883/5/6
f 882/5/6 878/5/6 884/5/6
f 877/5/6 883/5/6 885/5/6
f 883/5/6 884/5/6 885/5/6
f 884/5/6 878/5/6 886/5/6
f 885/5/6 884/5/6 886/5/6
f 887/5/6 888/5/6 889/5/6
f 889/5/6 888/5/6 890/5/6
f 890/5/6 888/5/6 892/5/6
f 887/5/6 889/5/6 893/5/6
f 891/5/6 892/5/6 894/5/6
f 887/5/6 893/5/6 895/5/6
f 893/5/6 894/5/6 895/5/6
f 894/5/6 892/5/6 896/5/6
f 895/5/6 894/5/6 896/5/6
f 892/5/6 888/5/6 896/5/6
f 897/5/6 898/5/6 899/5/6
f 899/5/6 898/5/6 900/5/6
f 897/5/6 899/5/6 901/5/6
f 900/5/6 898/5/6 902/5/6
f 897/5/6 901/5/6 903/5/6
f 901/5/6 902/5/6 903/5/6
f 902/5/6 898/5/6 904/5/6
f 903/5/6 902/5/6 904/5/6
f 905/5/6 906/5/6 907/5/6
f 907/5/6 906/5/6 908/5/6
f 905/5/6 907/5/6 909/5/6
f 908/5/6 906/5/6 910/5/6
f 905/5/6 909/5/6 911/5/6
f 909/5/6 910/5/6 911/5/6
f 910/5/6 906/5/6 912/5/6
f 911/5/6 910/5/6 912/5/6
f 913/7/6 914/7/6 915/7/6
f 915/7/6 914/7/6 916/7/6
f 917/7/6 918/7/6 919/7/6
f 919/7/6 918/7/6 920/7/6
f 921/7/6 922/7/6 923/7/6
f 923/7/6 922/7/6 924/7/6
f 925/7/6 926/7/6 927/7/6
f 927/7/6 926/7/6 928/7/6
f 929/7/6 930/7/6 931/7/6
f 931/7/6 930/7/6 932/7/6
f 933/7/6 934/7/6 935/7/6
f 935/7/6 934/7/6 936/7/6
f 937/1/6 938/1/6 939/1/6
f 939/1/6 938/1/6 940/1/6
f 941/7/6 942/7/6 943/7/6
f 943/7/6 942/7/6 944/7/6
f 945/7/6 946/7/6 947/7/6
f 947/7/6 946/7/6 948/7/6
f 949/7/6 950/7/6 951/7/6
f 951/7/6 950/7/6 952/7/6
f 949/7/6 951/7/6 953/7/6
f 952/7/6 950/7/6 954/7/6
f 949/7/6 953/7/6 955/7/6
f 953/7/6 954/7/6 955/7/6
f 954/7/6 950/7/6 956/7/6
f 955/7/6 954/7/6 956/7/6
f 957/7/6 958/7/6 959/7/6
f 959/7/6 958/7/6 960/7/6
f 961/7/6 962/7/6 963/7/6
f 963/7/6 962/7/6 964/7/6
f 965/1/6 966/1/6 967/1/6
f 967/1/6 966/1/6 968/1/6
f 969/7/6 970/7/6 971/7/6
f 971/7/6 970/7/6 972/7/6
f 969/7/6 971/7/6 973/7/6
f 972/7/6 970/7/6 974/7/6
f 969/7/6 973/7/6 975/7/6
f 973/7/6 974/7/6 975/7/6
f 974/7/6 970/7/6 976/7/6
f 975/7/6 974/7/6 976/7/6
f 977/8/6 978/8/6 979/8/6
f 979/8/6 978/8/6 980/8/6
f 981/8/6 982/8/6 983/8/6
f 983/8/6 982/8/6 984/8/6
f 985/8/6 986/8/6 987/8/6
f 987/8/6 986/8/6 988/8/6
f 989/8/6 990/8/6 991/8/6
f 991/8/6 990/8/6 992/8/6
f 993/8/6 994/8/6 995/8/6
f 995/8/6 994/8/6 996/8/6
f 997/8/6 998/8/6 999/8/6
f 999/8/6 998/8/6 1000/8/6
f 1001/9/6 1002/9/6 1003/9/6
f 1003/9/6 1002/9/6 1004/9/6
f 1005/9/6 1006/9/6 1007/9/6
f 1007/9/6 1006/9/6 1008/9/6
f 1009/9/6 1010/9/6 1011/9/6
f 1011/9/6 1010/9/6 1012/9/6
